﻿{
	"tasks": {
		"point": [
			{
				"_id": "1",
				"_time": "13.00",
				"_animals": "No",
				"_street": "Greens",
				"_house": "33"
			},
			{
				"_id": "2",
				"_time": "13.30",
				"_animals": "Yes",
				"_street": "Blacks",
				"_house": "12"
			},
			{
				"_id": "3",
				"_time": "16.05",
				"_animals": "No",
				"_street": "Frogs",
				"_house": "7"
			},
			{
				"_id": "4",
				"_time": "16.15",
				"_animals": "Yes",
				"_street": "Whites",
				"_house": "103"
			},
			{
				"_id": "5",
				"_time": "17.00",
				"_animals": "No",
				"_street": "Cats",
				"_house": "77"
			}
		]
	}
}